{
	"database":"",
    "host": "",
    "port": "",
    "username": "",
    "password": ""
}
This is an example of the logins.json file without data.
The real version should NEVER be added to source control.