{
    "Avatar Flight of Passage": {
        "outdoor": false,
        "speed": 2,
        "music": 1,
        "dark": 0,
        "water": 0,
        "coaster": false,
        "car": false,
        "train": false,
        "spinner": false,
        "isshow": false,
        "story": true,
        "game": false,
        "simulation": true
    },
    "DINOSAUR": {
        "outdoor": false,
        "speed": 3,
        "music": 0,
        "dark": 2,
        "water": 0,
        "coaster": false,
        "car": true,
        "train": false,
        "spinner": false,
        "isshow": false,
        "story": true,
        "game": false,
        "simulation": false
    },
    "Expedition Everest": {
        "outdoor": true,
        "speed": 4,
        "music": 1,
        "dark": 1,
        "water": 0,
        "coaster": true,
        "car": false,
        "train": false,
        "spinner": false,
        "isshow": false,
        "story": false,
        "game": false,
        "simulation": false
    },
    "It's Tough to be a Bug!": {
        "outdoor": false,
        "speed": 0,
        "music": 2,
        "dark": 1,
        "water": 2,
        "coaster": false,
        "car": false,
        "train": false,
        "spinner": false,
        "isshow": true,
        "story": true,
        "game": false,
        "simulation": false
    },
    "Kali River Rapids": {
        "outdoor": true,
        "speed": 3,
        "music": 0,
        "dark": 0,
        "water": 4,
        "coaster": false,
        "car": true,
        "train": false,
        "spinner": false,
        "isshow": false,
        "story": false,
        "game": false,
        "simulation": false
    },
    "Kilimanjaro Safaris": {
        "outdoor": true,
        "speed": 1,
        "music": 0,
        "dark": 0,
        "water": 0,
        "coaster": false,
        "car": true,
        "train": false,
        "spinner": false,
        "isshow": false,
        "story": false,
        "game": false,
        "simulation": false
    },
    "Na'vi River Journey": {
        "outdoor": false,
        "speed": 1,
        "music": 1,
        "dark": 1,
        "water": 1,
        "coaster": false,
        "car": true,
        "train": false,
        "spinner": false,
        "isshow": false,
        "story": false,
        "game": false,
        "simulation": false
    },
    "Primeval Whirl": {
        "outdoor": true,
        "speed": 3,
        "music": 1,
        "dark": 0,
        "water": 0,
        "coaster": false,
        "car": true,
        "train": false,
        "spinner": true,
        "isshow": false,
        "story": false,
        "game": false,
        "simulation": false
    },
    "The Boneyard": {
        "outdoor": true,
        "speed": 0,
        "music": 1,
        "dark": 0,
        "water": 0,
        "coaster": false,
        "car": false,
        "train": false,
        "spinner": false,
        "isshow": false,
        "story": false,
        "game": false,
        "simulation": false
    },
    "TriceraTop Spin": {
        "outdoor": true,
        "speed": 2,
        "music": 1,
        "dark": 0,
        "water": 0,
        "coaster": false,
        "car": false,
        "train": false,
        "spinner": true,
        "isshow": false,
        "story": false,
        "game": false,
        "simulation": false
    },
    "Disney & Pixar Short Film Festival": {
        "outdoor": false,
        "speed": 0,
        "music": 2,
        "dark": 1,
        "water": 0,
        "coaster": false,
        "car": false,
        "train": false,
        "spinner": false,
        "isshow": true,
        "story": true,
        "game": false,
        "simulation": false
    },
    "Ellen's Energy Adventure": {
        "outdoor": false,
        "speed": 1,
        "music": 1,
        "dark": 1,
        "water": 0,
        "coaster": false,
        "car": true,
        "train": false,
        "spinner": false,
        "isshow": true,
        "story": true,
        "game": false,
        "simulation": false
    },
    "Frozen Ever After": {
        "outdoor": false,
        "speed": 2,
        "music": 3,
        "dark": 1,
        "water": 1,
        "coaster": false,
        "car": true,
        "train": false,
        "spinner": false,
        "isshow": false,
        "story": true,
        "game": false,
        "simulation": false
    },
    "Gran Fiesta Tour Starring The Three Caballeros": {
        "outdoor": false,
        "speed": 1,
        "music": 2,
        "dark": 0,
        "water": 1,
        "coaster": false,
        "car": true,
        "train": false,
        "spinner": false,
        "isshow": false,
        "story": true,
        "game": false,
        "simulation": false
    },
    "Journey Into Imagination With Figment": {
        "outdoor": false,
        "speed": 1,
        "music": 3,
        "dark": 1,
        "water": 0,
        "coaster": false,
        "car": true,
        "train": false,
        "spinner": false,
        "isshow": false,
        "story": true,
        "game": false,
        "simulation": false
    },
    "Living with the Land": {
        "outdoor": false,
        "speed": 1,
        "music": 1,
        "dark": 0,
        "water": 1,
        "coaster": false,
        "car": true,
        "train": false,
        "spinner": false,
        "isshow": false,
        "story": false,
        "game": false,
        "simulation": false
    },
    "Mission: SPACE": {
        "outdoor": false,
        "speed": 3,
        "music": 1,
        "dark": 2,
        "water": 0,
        "coaster": false,
        "car": true,
        "train": false,
        "spinner": true,
        "isshow": false,
        "story": true,
        "game": false,
        "simulation": true
    },
    "O Canada!": {
        "outdoor": false,
        "speed": 0,
        "music": 1,
        "dark": 1,
        "water": 0,
        "coaster": false,
        "car": false,
        "train": false,
        "spinner": false,
        "isshow": true,
        "story": false,
        "game": false,
        "simulation": false
    },
    "RELAUNCHED! Mission: SPACE": {
        "outdoor": false,
        "speed": 3,
        "music": 1,
        "dark": 2,
        "water": 0,
        "coaster": false,
        "car": true,
        "train": false,
        "spinner":true,
        "isshow": false,
        "story": true,
        "game": false,
        "simulation": true
    },
    "Soarin'": {
        "outdoor": false,
        "speed": 2,
        "music": 2,
        "dark": 1,
        "water": 2,
        "coaster": false,
        "car": true,
        "train": false,
        "spinner": false,
        "isshow": true,
        "story": false,
        "game": false,
        "simulation": true
    },
    "Soarin' Around the World": {
        "outdoor": false,
        "speed": 2,
        "music": 2,
        "dark": 1,
        "water": 2,
        "coaster": false,
        "car": true,
        "train": false,
        "spinner": false,
        "isshow": true,
        "story": false,
        "game": false,
        "simulation": true
    },
    "Spaceship Earth": {
        "outdoor": false,
        "speed": 1,
        "music": 1,
        "dark": 2,
        "water": 0,
        "coaster": false,
        "car": false,
        "train": true,
        "spinner": false,
        "isshow": false,
        "story": true,
        "game": false,
        "simulation": false
    },
    "Test Track": {
        "outdoor": true,
        "speed": 3,
        "music": 1,
        "dark": 1,
        "water": 0,
        "coaster": false,
        "car": true,
        "train": false,
        "spinner": false,
        "isshow": false,
        "story": false,
        "game": false,
        "simulation": false
    },
    "The Circle of Life": {
        "outdoor": false,
        "speed": 0,
        "music": 2,
        "dark": 1,
        "water": 0,
        "coaster": false,
        "car": false,
        "train": false,
        "spinner": false,
        "isshow": true,
        "story": false,
        "game": false,
        "simulation": false
    },
    "The Seas with Nemo & Friends": {
        "outdoor": false,
        "speed": 1,
        "music": 1,
        "dark": 1,
        "water": 0,
        "coaster": false,
        "car": false,
        "train": true,
        "spinner": false,
        "isshow": false,
        "story": true,
        "game": false,
        "simulation": false
    },
    "Turtle Talk With Crush": {
        "outdoor": false,
        "speed": 0,
        "music": 0,
        "dark": 0,
        "water": 0,
        "coaster": false,
        "car": false,
        "train": false,
        "spinner": false,
        "isshow": true,
        "story": false,
        "game": false,
        "simulation": true
    },
    "Alien Swirling Saucers": {
        "outdoor": true,
        "speed": 2,
        "music": 2,
        "dark": 0,
        "water": 0,
        "coaster": false,
        "car": false,
        "train": false,
        "spinner": true,
        "isshow": false,
        "story": false,
        "game": false,
        "simulation": false
    },
    "Lightning McQueen's Racing Academy": {
        "outdoor": false,
        "speed": 0,
        "music": 3,
        "dark": 1,
        "water": 0,
        "coaster": false,
        "car": false,
        "train": false,
        "spinner": false,
        "isshow": true,
        "story": false,
        "game": false,
        "simulation": false
    },
    "Muppet*Vision 3D": {
        "outdoor": false,
        "speed": 0,
        "music": 3,
        "dark": 1,
        "water": 2,
        "coaster": false,
        "car": false,
        "train": false,
        "spinner": false,
        "isshow": true,
        "story": true,
        "game": false,
        "simulation": false
    },
    "Rock 'n' Roller Coaster Starring Aerosmith": {
        "outdoor": false,
        "speed": 4,
        "music": 2,
        "dark": 3,
        "water": 0,
        "coaster": true,
        "car": false,
        "train": false,
        "spinner": false,
        "isshow": false,
        "story": true,
        "game": false,
        "simulation": false
    },
    "Slinky Dog Dash": {
        "outdoor": true,
        "speed": 3,
        "music": 1,
        "dark": 0,
        "water": 0,
        "coaster": true,
        "car": false,
        "train": false,
        "spinner": false,
        "isshow": false,
        "story": false,
        "game": false,
        "simulation": false
    },
    "Star Tours": {
        "outdoor": false,
        "speed": 2,
        "music": 1,
        "dark": 1,
        "water": 0,
        "coaster": false,
        "car": true,
        "train": false,
        "spinner": false,
        "isshow": false,
        "story": false,
        "game": false,
        "simulation": true
    },
    "Star Wars Launch Bay Theater": {
        "outdoor": false,
        "speed": 0,
        "music": 1,
        "dark": 1,
        "water": 0,
        "coaster": false,
        "car": false,
        "train": false,
        "spinner": false,
        "isshow": true,
        "story": false,
        "game": false,
        "simulation": false
    },
    "The Great Movie Ride": {
        "outdoor": false,
        "speed": 1,
        "music": 2,
        "dark": 1,
        "water": 0,
        "coaster": false,
        "car": true,
        "train": false,
        "spinner": false,
        "isshow": false,
        "story": true,
        "game": false,
        "simulation": false
    },
    "The Twilight Zone Tower of Terror": {
        "outdoor": false,
        "speed": 4,
        "music": 1,
        "dark": 2,
        "water": 0,
        "coaster": false,
        "car": true,
        "train": false,
        "spinner": false,
        "isshow": false,
        "story": true,
        "game": false,
        "simulation": false
    },
    "Toy Story Mania!": {
        "outdoor": false,
        "speed": 1,
        "music": 1,
        "dark": 0,
        "water": 0,
        "coaster": false,
        "car": true,
        "train": false,
        "spinner": false,
        "isshow": false,
        "story": false,
        "game": true,
        "simulation": false
    },
    "Walt Disney Presents": {
        "outdoor": false,
        "speed": 0,
        "music": 1,
        "dark": 1,
        "water": 0,
        "coaster": false,
        "car": false,
        "train": false,
        "spinner": false,
        "isshow": true,
        "story": false,
        "game": false,
        "simulation": false
    },
    "Walt Disney: One Man's Dream": {
        "outdoor": false,
        "speed": 0,
        "music": 1,
        "dark": 1,
        "water": 0,
        "coaster": false,
        "car": false,
        "train": false,
        "spinner": false,
        "isshow": true,
        "story": false,
        "game": false,
        "simulation": false
    },
    "\"it's a small world\"": {
        "outdoor": false,
        "speed": 1,
        "music": 3,
        "dark": 0,
        "water": 1,
        "coaster": false,
        "car": true,
        "train": false,
        "spinner": false,
        "isshow": false,
        "story": false,
        "game": false,
        "simulation": false
    },
    "A Pirate's Adventure": {
        "outdoor": false,
        "speed": 0,
        "music": 0,
        "dark": 0,
        "water": 0,
        "coaster": false,
        "car": false,
        "train": false,
        "spinner": false,
        "isshow": false,
        "story": false,
        "game": false,
        "simulation": false
    },
    "Astro Orbiter": {
        "outdoor": true,
        "speed": 2,
        "music": 1,
        "dark": 0,
        "water": 0,
        "coaster": false,
        "car": false,
        "train": false,
        "spinner": true,
        "isshow": false,
        "story": false,
        "game": false,
        "simulation": false
    },
    "Big Thunder Mountain Railroad": {
        "outdoor": true,
        "speed": 4,
        "music": 1,
        "dark": 1,
        "water": 2,
        "coaster": true,
        "car": false,
        "train": false,
        "spinner": false,
        "isshow": false,
        "story": false,
        "game": false,
        "simulation": false
    },
    "Buzz Lightyear's Space Ranger Spin": {
        "outdoor": false,
        "speed": 1,
        "music": 1,
        "dark": 1,
        "water": 0,
        "coaster": false,
        "car": false,
        "train": true,
        "spinner": false,
        "isshow": false,
        "story": true,
        "game": true,
        "simulation": false
    },
    "Dumbo the Flying Elephant": {
        "outdoor": true,
        "speed": 2,
        "music": 1,
        "dark": 0,
        "water": 0,
        "coaster": false,
        "car": false,
        "train": false,
        "spinner": true,
        "isshow": false,
        "story": false,
        "game": false,
        "simulation": false
    },
    "Enchanted Tales with Belle": {
        "outdoor": false,
        "speed": 0,
        "music": 0,
        "dark": 0,
        "water": 0,
        "coaster": false,
        "car": false,
        "train": false,
        "spinner": false,
        "isshow": true,
        "story": true,
        "game": false,
        "simulation": false
    },
    "Haunted Mansion": {
        "outdoor": false,
        "speed": 1,
        "music": 2,
        "dark": 2,
        "water": 0,
        "coaster": false,
        "car": false,
        "train": true,
        "spinner": false,
        "isshow": false,
        "story": false,
        "game": false,
        "simulation": false
    },
    "Jungle Cruise": {
        "outdoor": true,
        "speed": 1,
        "music": 0,
        "dark": 0,
        "water": 2,
        "coaster": false,
        "car": true,
        "train": false,
        "spinner": false,
        "isshow": false,
        "story": false,
        "game": false,
        "simulation": false
    },
    "Liberty Square Riverboat": {
        "outdoor": true,
        "speed": 1,
        "music": 0,
        "dark": 0,
        "water": 1,
        "coaster": false,
        "car": true,
        "train": false,
        "spinner": false,
        "isshow": false,
        "story": false,
        "game": false,
        "simulation": false
    },
    "Mad Tea Party": {
        "outdoor": true,
        "speed": 2,
        "music": 1,
        "dark": 0,
        "water": 0,
        "coaster": false,
        "car": false,
        "train": false,
        "spinner": true,
        "isshow": false,
        "story": false,
        "game": false,
        "simulation": false
    },
    "Mickey's PhilharMagic": {
        "outdoor": false,
        "speed": 0,
        "music": 3,
        "dark": 1,
        "water": 2,
        "coaster": false,
        "car": false,
        "train": false,
        "spinner": false,
        "isshow": true,
        "story": true,
        "game": false,
        "simulation": false
    },
    "Monsters, Inc. Laugh Floor": {
        "outdoor": false,
        "speed": 0,
        "music": 1,
        "dark": 1,
        "water": 0,
        "coaster": false,
        "car": false,
        "train": false,
        "spinner": false,
        "isshow": true,
        "story": true,
        "game": false,
        "simulation": false
    },
    "Peter Pan's Flight": {
        "outdoor": false,
        "speed": 1,
        "music": 1,
        "dark": 1,
        "water": 0,
        "coaster": false,
        "car": false,
        "train": true,
        "spinner": false,
        "isshow": false,
        "story": true,
        "game": false,
        "simulation": false
    },
    "Pirates of the Caribbean": {
        "outdoor": false,
        "speed": 2,
        "music": 2,
        "dark": 2,
        "water": 2,
        "coaster": false,
        "car": true,
        "train": false,
        "spinner": false,
        "isshow": false,
        "story": true,
        "game": false,
        "simulation": false
    },
    "Prince Charming Regal Carrousel": {
        "outdoor": true,
        "speed": 2,
        "music": 2,
        "dark": 0,
        "water": 0,
        "coaster": false,
        "car": false,
        "train": false,
        "spinner": true,
        "isshow": false,
        "story": false,
        "game": false,
        "simulation": false
    },
    "Seven Dwarfs Mine Train ": {
        "outdoor": true,
        "speed": 3,
        "music": 2,
        "dark": 1,
        "water": 0,
        "coaster": true,
        "car": false,
        "train": false,
        "spinner": false,
        "isshow": false,
        "story": true,
        "game": false,
        "simulation": false
    },
    "Space Mountain": {
        "outdoor": false,
        "speed": 4,
        "music": 1,
        "dark": 3,
        "water": 0,
        "coaster": true,
        "car": false,
        "train": false,
        "spinner": false,
        "isshow": false,
        "story": false,
        "game": false,
        "simulation": false
    },
    "Splash Mountain": {
        "outdoor": true,
        "speed": 3,
        "music": 2,
        "dark": 1,
        "water": 4,
        "coaster": false,
        "car": true,
        "train": false,
        "spinner": false,
        "isshow": false,
        "story": true,
        "game": false,
        "simulation": false
    },
    "Stitch's Great Escape!": {
        "outdoor": false,
        "speed": 0,
        "music": 0,
        "dark": 2,
        "water": 0,
        "coaster": false,
        "car": false,
        "train": false,
        "spinner": false,
        "isshow": true,
        "story": false,
        "game": false,
        "simulation": false
    },
    "Swiss Family Treehouse": {
        "outdoor": true,
        "speed": 0,
        "music": 0,
        "dark": 0,
        "water": 0,
        "coaster": false,
        "car": false,
        "train": false,
        "spinner": false,
        "isshow": false,
        "story": false,
        "game": false,
        "simulation": false
    },
    "The Barnstormer": {
        "outdoor": true,
        "speed": 4,
        "music": 0,
        "dark": 0,
        "water": 0,
        "coaster": true,
        "car": false,
        "train": false,
        "spinner": false,
        "isshow": false,
        "story": false,
        "game": false,
        "simulation": false
    },
    "The Hall of Presidents": {
        "outdoor": false,
        "speed": 0,
        "music": 2,
        "dark": 1,
        "water": 0,
        "coaster": false,
        "car": false,
        "train": false,
        "spinner": false,
        "isshow": true,
        "story": false,
        "game": false,
        "simulation": false
    },
    "The Magic Carpets of Aladdin": {
        "outdoor": true,
        "speed": 2,
        "music": 1,
        "dark": 0,
        "water": 0,
        "coaster": false,
        "car": false,
        "train": false,
        "spinner": true,
        "isshow": false,
        "story": false,
        "game": false,
        "simulation": false
    },
    "The Many Adventures of Winnie the Pooh": {
        "outdoor": false,
        "speed": 1,
        "music": 3,
        "dark": 0,
        "water": 0,
        "coaster": false,
        "car": true,
        "train": false,
        "spinner": false,
        "isshow": false,
        "story": true,
        "game": false,
        "simulation": false
    },
    "Tom Sawyer Island": {
        "outdoor": true,
        "speed": 0,
        "music": 0,
        "dark": 1,
        "water": 0,
        "coaster": false,
        "car": false,
        "train": false,
        "spinner": false,
        "isshow": false,
        "story": false,
        "game": false,
        "simulation": false
    },
    "Tomorrowland Speedway": {
        "outdoor": true,
        "speed": 2,
        "music": 0,
        "dark": 0,
        "water": 0,
        "coaster": false,
        "car": true,
        "train": false,
        "spinner": false,
        "isshow": false,
        "story": false,
        "game": false,
        "simulation": false
    },
    "Tomorrowland Transit Authority PeopleMover": {
        "outdoor": true,
        "speed": 1,
        "music": 2,
        "dark": 1,
        "water": 0,
        "coaster": false,
        "car": true,
        "train": false,
        "spinner": false,
        "isshow": false,
        "story": false,
        "game": false,
        "simulation": false
    },
    "Under the Sea": {
        "outdoor": false,
        "speed": 1,
        "music": 2,
        "dark": 1,
        "water": 0,
        "coaster": false,
        "car": false,
        "train": true,
        "spinner": false,
        "isshow": false,
        "story": true,
        "game": false,
        "simulation": false
    },
    "Walt Disney's Carousel of Progress": {
        "outdoor": false,
        "speed": 1,
        "music": 3,
        "dark": 1,
        "water": 0,
        "coaster": false,
        "car": true,
        "train": false,
        "spinner": false,
        "isshow": true,
        "story": true,
        "game": false,
        "simulation": false
    },
    "Walt Disney's Enchanted Tiki Room": {
        "outdoor": false,
        "speed": 0,
        "music": 3,
        "dark": 1,
        "water": 0,
        "coaster": false,
        "car": false,
        "train": false,
        "spinner": false,
        "isshow": true,
        "story": false,
        "game": false,
        "simulation": false
    }
}